<svg xmlns="http://www.w3.org/2000/svg" width="17.16" height="17.16" viewBox="0 0 17.16 17.16">
    <path data-name="Trazado 1350" d="M8.58 17.16a8.58 8.58 0 1 1 8.58-8.58 8.58 8.58 0 0 1-8.58 8.58zm5.485-4.2A7.02 7.02 0 0 0 4.2 3.1zm-1.1 1.1A7.02 7.02 0 0 1 3.1 4.2z" style="fill:#fff;fill-rule:evenodd"/>
</svg>
