<svg xmlns="http://www.w3.org/2000/svg" width="19.367" height="19.367" viewBox="0 0 19.367 19.367">
  <defs>
    <style>
      .cls-1 {
        fill-rule: evenodd;
      }
    </style>
  </defs>
  <path id="Trazado_1432" data-name="Trazado 1432" class="cls-1" d="M3.937,2H19.43a1.937,1.937,0,0,1,1.937,1.937V19.43a1.937,1.937,0,0,1-1.937,1.937H3.937A1.937,1.937,0,0,1,2,19.43V3.937A1.937,1.937,0,0,1,3.937,2Zm0,1.937V7.81h6.779V3.937Zm8.715,0V13.62H19.43V3.937Zm0,11.62V19.43H19.43V15.557ZM10.715,19.43V9.747H3.937V19.43Z" transform="translate(-2 -2)"/>
</svg>
