<svg xmlns="http://www.w3.org/2000/svg" width="25" height="25">
    <path data-name="Trazado 200" d="M15.75 14.375v8.875h-2.5v-8.875a6.25 6.25 0 1 1 2.5 0zm-5 2.822v2.534C7.084 20.188 4.5 21.233 4.5 22c0 1.009 4.474 2.5 10 2.5s10-1.491 10-2.5c0-.767-2.584-1.812-6.25-2.269V17.2c5.07.552 8.75 2.26 8.75 4.8 0 3.133-5.6 5-12.5 5S2 25.133 2 22c0-2.54 3.68-4.248 8.75-4.8zm7.5-8.947A3.75 3.75 0 1 1 14.5 4.5a3.75 3.75 0 0 1 3.75 3.75z" transform="translate(-2 -2)" style="fill-rule:evenodd"/>
</svg>
