<svg xmlns="http://www.w3.org/2000/svg" width="20.229" height="14.939" viewBox="0 0 20.229 14.939">
  <defs>
    <style>
      .cls-1 {
        fill: #fff;
        fill-rule: evenodd;
      }
    </style>
  </defs>
  <path id="Trazado_195" data-name="Trazado 195" class="cls-1" d="M11.034,16.453,22.486,5l1.743,1.743-13.2,13.2L4,12.905l1.743-1.743Z" transform="translate(-4 -5)"/>
</svg>
